Verilog/Basic examples/Exp1/wave_Ripple_Carry_Adder_eight_bits_v.vcd
$date
	Thu Mar 11 12:49:22 2021
$end
$version
	ModelSim Version 10.5b
$end
$timescale
	10ns
$end

$scope module RCATB $end
$var reg 8 ! a [7:0] $end
$var reg 8 " b [7:0] $end
$var reg 1 # cin $end
$var wire 1 $ S [7] $end
$var wire 1 % S [6] $end
$var wire 1 & S [5] $end
$var wire 1 ' S [4] $end
$var wire 1 ( S [3] $end
$var wire 1 ) S [2] $end
$var wire 1 * S [1] $end
$var wire 1 + S [0] $end
$var wire 1 , C $end
$var integer 32 - i $end
$var integer 32 . j $end

$scope module uut $end
$var wire 1 / A [7] $end
$var wire 1 0 A [6] $end
$var wire 1 1 A [5] $end
$var wire 1 2 A [4] $end
$var wire 1 3 A [3] $end
$var wire 1 4 A [2] $end
$var wire 1 5 A [1] $end
$var wire 1 6 A [0] $end
$var wire 1 7 B [7] $end
$var wire 1 8 B [6] $end
$var wire 1 9 B [5] $end
$var wire 1 : B [4] $end
$var wire 1 ; B [3] $end
$var wire 1 < B [2] $end
$var wire 1 = B [1] $end
$var wire 1 > B [0] $end
$var wire 1 ? C0 $end
$var wire 1 $ S [7] $end
$var wire 1 % S [6] $end
$var wire 1 & S [5] $end
$var wire 1 ' S [4] $end
$var wire 1 ( S [3] $end
$var wire 1 ) S [2] $end
$var wire 1 * S [1] $end
$var wire 1 + S [0] $end
$var wire 1 , Cout $end
$var wire 1 @ C [7] $end
$var wire 1 A C [6] $end
$var wire 1 B C [5] $end
$var wire 1 C C [4] $end
$var wire 1 D C [3] $end
$var wire 1 E C [2] $end
$var wire 1 F C [1] $end

$scope module FA0 $end
$var wire 1 > A0 $end
$var wire 1 6 B0 $end
$var wire 1 ? Ci $end
$var wire 1 + S $end
$var wire 1 F C $end
$var wire 1 G hs $end
$var wire 1 H hc $end
$var wire 1 I tc $end
$upscope $end

$scope module FA1 $end
$var wire 1 = A0 $end
$var wire 1 5 B0 $end
$var wire 1 F Ci $end
$var wire 1 * S $end
$var wire 1 E C $end
$var wire 1 J hs $end
$var wire 1 K hc $end
$var wire 1 L tc $end
$upscope $end

$scope module FA2 $end
$var wire 1 < A0 $end
$var wire 1 4 B0 $end
$var wire 1 E Ci $end
$var wire 1 ) S $end
$var wire 1 D C $end
$var wire 1 M hs $end
$var wire 1 N hc $end
$var wire 1 O tc $end
$upscope $end

$scope module FA3 $end
$var wire 1 ; A0 $end
$var wire 1 3 B0 $end
$var wire 1 D Ci $end
$var wire 1 ( S $end
$var wire 1 C C $end
$var wire 1 P hs $end
$var wire 1 Q hc $end
$var wire 1 R tc $end
$upscope $end

$scope module FA4 $end
$var wire 1 : A0 $end
$var wire 1 2 B0 $end
$var wire 1 C Ci $end
$var wire 1 ' S $end
$var wire 1 B C $end
$var wire 1 S hs $end
$var wire 1 T hc $end
$var wire 1 U tc $end
$upscope $end

$scope module FA5 $end
$var wire 1 9 A0 $end
$var wire 1 1 B0 $end
$var wire 1 B Ci $end
$var wire 1 & S $end
$var wire 1 A C $end
$var wire 1 V hs $end
$var wire 1 W hc $end
$var wire 1 X tc $end
$upscope $end

$scope module FA6 $end
$var wire 1 8 A0 $end
$var wire 1 0 B0 $end
$var wire 1 A Ci $end
$var wire 1 % S $end
$var wire 1 @ C $end
$var wire 1 Y hs $end
$var wire 1 Z hc $end
$var wire 1 [ tc $end
$upscope $end

$scope module FA7 $end
$var wire 1 7 A0 $end
$var wire 1 / B0 $end
$var wire 1 @ Ci $end
$var wire 1 $ S $end
$var wire 1 , C $end
$var wire 1 \ hs $end
$var wire 1 ] hc $end
$var wire 1 ^ tc $end
$upscope $end
$upscope $end
$upscope $end
$enddefinitions $end
#0
$dumpvars
b0 !
b0 "
0#
bx -
bx .
0+
0*
0)
0(
0'
0&
0%
0$
0,
0F
0E
0D
0C
0B
0A
0@
0G
0H
0I
0J
0K
0L
0M
0N
0O
0P
0Q
0R
0S
0T
0U
0V
0W
0X
0Y
0Z
0[
0\
0]
0^
0?
0>
0=
0<
0;
0:
09
08
07
06
05
04
03
02
01
00
0/
$end
#200
b0 -
b1 !
b0 .
b1 "
1#
1>
16
1?
1H
1+
1F
1*
#400
b1 .
0#
0?
0+
#600
b10 .
b11 .
b10 "
b0 .
1#
0>
1=
1?
0H
1G
1J
1+
0F
1I
0+
1L
0*
0L
1*
1F
1E
0E
1L
0*
1)
0)
1E
1)
#800
b1 .
0#
0?
0I
1+
0F
0L
1*
0E
0)
#1000
b10 .
b11 .
b11 "
b0 .
1#
1>
1?
1H
0G
1I
0+
1F
0I
1+
1L
0*
1E
1)
#1200
b1 .
0#
0?
0+
#1400
b10 .
b11 .
b100 "
b0 .
1#
0>
0=
1<
1?
0H
1G
0J
1M
1+
0F
1I
0+
0L
1*
1O
0)
0*
1F
0E
1D
1*
0O
1)
1(
0D
0(
#1600
b1 .
0#
0?
0I
1+
0F
0*
#1800
b10 .
b11 .
b101 "
b0 .
1#
1>
1?
1H
0G
1I
0+
1F
0I
1+
1*
#2000
b1 .
0#
0?
0+
#2200
b10 .
b11 .
b110 "
b0 .
1#
0>
1=
1?
0H
1G
1J
1+
0F
1I
0+
1L
0*
0L
1*
1F
1E
0E
1L
0*
1O
0)
0O
1)
1E
1D
0D
1O
0)
1(
0(
1D
1(
#2400
b1 .
0#
0?
0I
1+
0F
0L
1*
0E
0O
1)
0D
0(
#2600
b10 .
b11 .
b111 "
b0 .
1#
1>
1?
1H
0G
1I
0+
1F
0I
1+
1L
0*
1E
1O
0)
1D
1(
#2800
b1 .
0#
0?
0+
#3000
b10 .
b11 .
b1000 "
b0 .
1#
0>
0=
0<
1;
1?
0H
1G
0J
0M
1P
1+
0F
1I
0+
0L
1*
0O
1)
1R
0(
0*
1F
0E
0D
1C
1*
0)
0R
1(
1'
0C
0'
#3200
b1 .
0#
0?
0I
1+
0F
0*
#3400
b10 .
b11 .
b1001 "
b0 .
1#
1>
1?
1H
0G
1I
0+
1F
0I
1+
1*
#3600
b1 .
0#
0?
0+
#3800
b10 .
b11 .
b1010 "
b0 .
1#
0>
1=
1?
0H
1G
1J
1+
0F
1I
0+
1L
0*
0L
1*
1F
1E
0E
1L
0*
1)
0)
1E
1)
#4000
b1 .
0#
0?
0I
1+
0F
0L
1*
0E
0)
#4200
b10 .
b11 .
b1011 "
b0 .
1#
1>
1?
1H
0G
1I
0+
1F
0I
1+
1L
0*
1E
1)
#4400
b1 .
0#
0?
0+
#4600
b10 .
b11 .
b1100 "
b0 .
1#
0>
0=
1<
1?
0H
1G
0J
1M
1+
0F
1I
0+
0L
1*
1O
0)
0*
1F
0E
1D
1*
0O
1)
1R
0(
0D
1C
0R
1(
1'
0C
0'
#4800
b1 .
0#
0?
0I
1+
0F
0*
#5000
b10 .
b11 .
b1101 "
b0 .
1#
1>
1?
1H
0G
1I
0+
1F
0I
1+
1*
#5200
b1 .
0#
0?
0+
#5400
b10 .
b11 .
b1110 "
b0 .
1#
0>
1=
1?
0H
1G
1J
1+
0F
1I
0+
1L
0*
0L
1*
1F
1E
0E
1L
0*
1O
0)
0O
1)
1E
1D
0D
1O
0)
1R
0(
0R
1(
1D
1C
0C
1R
0(
1'
0'
1C
1'
#5600
b1 .
0#
0?
0I
1+
0F
0L
1*
0E
0O
1)
0D
0R
1(
0C
0'
#5800
b10 .
b11 .
b1111 "
b0 .
1#
1>
1?
1H
0G
1I
0+
1F
0I
1+
1L
0*
1E
1O
0)
1D
1R
0(
1C
1'
#6000
b1 .
0#
0?
0+
#6200
b10 .
b11 .
b10000 "
b0 .
1#
0>
0=
0<
0;
1:
1?
0H
1G
0J
0M
0P
1S
1+
0F
1I
0+
0L
1*
0O
1)
0R
1(
1U
0'
0*
1F
0E
0D
0C
1B
1*
0)
0(
0U
1'
1&
0B
0&
#6400
b1 .
0#
0?
0I
1+
0F
0*
#6600
b10 .
b11 .
b10001 "
b0 .
1#
1>
1?
1H
0G
1I
0+
1F
0I
1+
1*
#6800
b1 .
0#
0?
0+
#7000
b10 .
b11 .
b10010 "
b0 .
1#
0>
1=
1?
0H
1G
1J
1+
0F
1I
0+
1L
0*
0L
1*
1F
1E
0E
1L
0*
1)
0)
1E
1)
#7200
b1 .
0#
0?
0I
1+
0F
0L
1*
0E
0)
#7400
b10 .
b11 .
b10011 "
b0 .
1#
1>
1?
1H
0G
1I
0+
1F
0I
1+
1L
0*
1E
1)
#7600
b1 .
0#
0?
0+
#7800
b10 .
b11 .
b10100 "
b0 .
1#
0>
0=
1<
1?
0H
1G
0J
1M
1+
0F
1I
0+
0L
1*
1O
0)
0*
1F
0E
1D
1*
0O
1)
1(
0D
0(
#8000
b1 .
0#
0?
0I
1+
0F
0*
#8200
b10 .
b11 .
b10101 "
b0 .
1#
1>
1?
1H
0G
1I
0+
1F
0I
1+
1*
#8400
b1 .
0#
0?
0+
#8600
b10 .
b11 .
b10110 "
b0 .
1#
0>
1=
1?
0H
1G
1J
1+
0F
1I
0+
1L
0*
0L
1*
1F
1E
0E
1L
0*
1O
0)
0O
1)
1E
1D
0D
1O
0)
1(
0(
1D
1(
#8800
b1 .
0#
0?
0I
1+
0F
0L
1*
0E
0O
1)
0D
0(
#9000
b10 .
b11 .
b10111 "
b0 .
1#
1>
1?
1H
0G
1I
0+
1F
0I
1+
1L
0*
1E
1O
0)
1D
1(
#9200
b1 .
0#
0?
0+
#9400
b10 .
b11 .
b11000 "
b0 .
1#
0>
0=
0<
1;
1?
0H
1G
0J
0M
1P
1+
0F
1I
0+
0L
1*
0O
1)
1R
0(
0*
1F
0E
0D
1C
1*
0)
0R
1(
1U
0'
0C
1B
0U
1'
1&
0B
0&
#9600
b1 .
0#
0?
0I
1+
0F
0*
#9800
b10 .
b11 .
b11001 "
b0 .
1#
1>
1?
1H
0G
1I
0+
1F
0I
1+
1*
#10000
b1 .
0#
0?
0+
#10200
b10 .
b11 .
b11010 "
b0 .
1#
0>
1=
1?
0H
1G
1J
1+
0F
1I
0+
1L
0*
0L
1*
1F
1E
0E
1L
0*
1)
0)
1E
1)
#10400
b1 .
0#
0?
0I
1+
0F
0L
1*
0E
0)
#10600
b10 .
b11 .
b11011 "
b0 .
1#
1>
1?
1H
0G
1I
0+
1F
0I
1+
1L
0*
1E
1)
#10800
b1 .
0#
0?
0+
#11000
b10 .
b11 .
b11100 "
b0 .
1#
0>
0=
1<
1?
0H
1G
0J
1M
1+
0F
1I
0+
0L
1*
1O
0)
0*
1F
0E
1D
1*
0O
1)
1R
0(
0D
1C
0R
1(
1U
0'
0C
1B
0U
1'
1&
0B
0&
#11200
b1 .
0#
0?
0I
1+
0F
0*
#11400
b10 .
b11 .
b11101 "
b0 .
1#
1>
1?
1H
0G
1I
0+
1F
0I
1+
1*
#11600
b1 .
0#
0?
0+
#11800
b10 .
b11 .
b11110 "
b0 .
1#
0>
1=
1?
0H
1G
1J
1+
0F
1I
0+
1L
0*
0L
1*
1F
1E
0E
1L
0*
1O
0)
0O
1)
1E
1D
0D
1O
0)
1R
0(
0R
1(
1D
1C
0C
1R
0(
1U
0'
0U
1'
1C
1B
0B
1U
0'
1&
0&
1B
1&
#12000
b1 .
0#
0?
0I
1+
0F
0L
1*
0E
0O
1)
0D
0R
1(
0C
0U
1'
0B
0&
#12200
b10 .
b11 .
b11111 "
b0 .
1#
1>
1?
1H
0G
1I
0+
1F
0I
1+
1L
0*
1E
1O
0)
1D
1R
0(
1C
1U
0'
1B
1&
#12400
b1 .
0#
0?
0+
#12600
b10 .
b11 .
b100000 "
b0 .
1#
0>
0=
0<
0;
0:
19
1?
0H
1G
0J
0M
0P
0S
1V
1+
0F
1I
0+
0L
1*
0O
1)
0R
1(
0U
1'
1X
0&
0*
1F
0E
0D
0C
0B
1A
1*
0)
0(
0'
0X
1&
1%
0A
0%
#12800
b1 .
0#
0?
0I
1+
0F
0*
#13000
b10 .
b11 .
b100001 "
b0 .
1#
1>
1?
1H
0G
1I
0+
1F
0I
1+
1*
#13200
b1 .
0#
0?
0+
#13400
b10 .
b11 .
b100010 "
b0 .
1#
0>
1=
1?
0H
1G
1J
1+
0F
1I
0+
1L
0*
0L
1*
1F
1E
0E
1L
0*
1)
0)
1E
1)
#13600
b1 .
0#
0?
0I
1+
0F
0L
1*
0E
0)
#13800
b10 .
b11 .
b100011 "
b0 .
1#
1>
1?
1H
0G
1I
0+
1F
0I
1+
1L
0*
1E
1)
#14000
b1 .
0#
0?
0+
#14200
b10 .
b11 .
b100100 "
b0 .
1#
0>
0=
1<
1?
0H
1G
0J
1M
1+
0F
1I
0+
0L
1*
1O
0)
0*
1F
0E
1D
1*
0O
1)
1(
0D
0(
#14400
b1 .
0#
0?
0I
1+
0F
0*
#14600
b10 .
b11 .
b100101 "
b0 .
1#
1>
1?
1H
0G
1I
0+
1F
0I
1+
1*
#14800
b1 .
0#
0?
0+
#15000
b10 .
b11 .
b100110 "
b0 .
1#
0>
1=
1?
0H
1G
1J
1+
0F
1I
0+
1L
0*
0L
1*
1F
1E
0E
1L
0*
1O
0)
0O
1)
1E
1D
0D
1O
0)
1(
0(
1D
1(
#15200
b1 .
0#
0?
0I
1+
0F
0L
1*
0E
0O
1)
0D
0(
#15400
b10 .
b11 .
b100111 "
b0 .
1#
1>
1?
1H
0G
1I
0+
1F
0I
1+
1L
0*
1E
1O
0)
1D
1(
#15600
b1 .
0#
0?
0+
#15800
b10 .
b11 .
b101000 "
b0 .
1#
0>
0=
0<
1;
1?
0H
1G
0J
0M
1P
1+
0F
1I
0+
0L
1*
0O
1)
1R
0(
0*
1F
0E
0D
1C
1*
0)
0R
1(
1'
0C
0'
#16000
b1 .
0#
0?
0I
1+
0F
0*
#16200
b10 .
b11 .
b101001 "
b0 .
1#
1>
1?
1H
0G
1I
0+
1F
0I
1+
1*
#16400
b1 .
0#
0?
0+
#16600
b10 .
b11 .
b101010 "
b0 .
1#
0>
1=
1?
0H
1G
1J
1+
0F
1I
0+
1L
0*
0L
1*
1F
1E
0E
1L
0*
1)
0)
1E
1)
#16800
b1 .
0#
0?
0I
1+
0F
0L
1*
0E
0)
#17000
b10 .
b11 .
b101011 "
b0 .
1#
1>
1?
1H
0G
1I
0+
1F
0I
1+
1L
0*
1E
1)
#17200
b1 .
0#
0?
0+
#17400
b10 .
b11 .
b101100 "
b0 .
1#
0>
0=
1<
1?
0H
1G
0J
1M
1+
0F
1I
0+
0L
1*
1O
0)
0*
1F
0E
1D
1*
0O
1)
1R
0(
0D
1C
0R
1(
1'
0C
0'
#17600
b1 .
0#
0?
0I
1+
0F
0*
#17800
b10 .
b11 .
b101101 "
b0 .
1#
1>
1?
1H
0G
1I
0+
1F
0I
1+
1*
#18000
b1 .
0#
0?
0+
#18200
b10 .
b11 .
b101110 "
b0 .
1#
0>
1=
1?
0H
1G
1J
1+
0F
1I
0+
1L
0*
0L
1*
1F
1E
0E
1L
0*
1O
0)
0O
1)
1E
1D
0D
1O
0)
1R
0(
0R
1(
1D
1C
0C
1R
0(
1'
0'
1C
1'
#18400
b1 .
0#
0?
0I
1+
0F
0L
1*
0E
0O
1)
0D
0R
1(
0C
0'
#18600
b10 .
b11 .
b101111 "
b0 .
1#
1>
1?
1H
0G
1I
0+
1F
0I
1+
1L
0*
1E
1O
0)
1D
1R
0(
1C
1'
#18800
b1 .
0#
0?
0+
#19000
b10 .
b11 .
b110000 "
b0 .
1#
0>
0=
0<
0;
1:
1?
0H
1G
0J
0M
0P
1S
1+
0F
1I
0+
0L
1*
0O
1)
0R
1(
1U
0'
0*
1F
0E
0D
0C
1B
1*
0)
0(
0U
1'
1X
0&
0B
1A
0X
1&
1%
0A
0%
#19200
b1 .
0#
0?
0I
1+
0F
0*
#19400
b10 .
b11 .
b110001 "
b0 .
1#
1>
1?
1H
0G
1I
0+
1F
0I
1+
1*
#19600
b1 .
0#
0?
0+
#19800
b10 .
b11 .
b110010 "
b0 .
1#
0>
1=
1?
0H
1G
1J
1+
0F
1I
0+
1L
0*
0L
1*
1F
1E
0E
1L
0*
1)
0)
1E
1)
#20000
b1 .
0#
0?
0I
1+
0F
0L
1*
0E
0)
#20200
b10 .
b11 .
b110011 "
b0 .
1#
1>
1?
1H
0G
1I
0+
1F
0I
1+
1L
0*
1E
1)
#20400
b1 .
0#
0?
0+
#20600
b10 .
b11 .
b110100 "
b0 .
1#
0>
0=
1<
1?
0H
1G
0J
1M
1+
0F
1I
0+
0L
1*
1O
0)
0*
1F
0E
1D
1*
0O
1)
1(
0D
0(
#20800
b1 .
0#
0?
0I
1+
0F
0*
#21000
b10 .
b11 .
b110101 "
b0 .
1#
1>
1?
1H
0G
1I
0+
1F
0I
1+
1*
#21200
b1 .
0#
0?
0+
#21400
b10 .
b11 .
b110110 "
b0 .
1#
0>
1=
1?
0H
1G
1J
1+
0F
1I
0+
1L
0*
0L
1*
1F
1E
0E
1L
0*
1O
0)
0O
1)
1E
1D
0D
1O
0)
1(
0(
1D
1(
#21600
b1 .
0#
0?
0I
1+
0F
0L
1*
0E
0O
1)
0D
0(
#21800
b10 .
b11 .
b110111 "
b0 .
1#
1>
1?
1H
0G
1I
0+
1F
0I
1+
1L
0*
1E
1O
0)
1D
1(
#22000
b1 .
0#
0?
0+
#22200
b10 .
b11 .
b111000 "
b0 .
1#
0>
0=
0<
1;
1?
0H
1G
0J
0M
1P
1+
0F
1I
0+
0L
1*
0O
1)
1R
0(
0*
1F
0E
0D
1C
1*
0)
0R
1(
1U
0'
0C
1B
0U
1'
1X
0&
0B
1A
0X
1&
1%
0A
0%
#22400
b1 .
0#
0?
0I
1+
0F
0*
#22600
b10 .
b11 .
b111001 "
b0 .
1#
1>
1?
1H
0G
1I
0+
1F
0I
1+
1*
#22800
b1 .
0#
0?
0+
#23000
b10 .
b11 .
b111010 "
b0 .
1#
0>
1=
1?
0H
1G
1J
1+
0F
1I
0+
1L
0*
0L
1*
1F
1E
0E
1L
0*
1)
0)
1E
1)
#23200
b1 .
0#
0?
0I
1+
0F
0L
1*
0E
0)
#23400
b10 .
b11 .
b111011 "
b0 .
1#
1>
1?
1H
0G
1I
0+
1F
0I
1+
1L
0*
1E
1)
#23600
b1 .
0#
0?
0+
#23800
b10 .
b11 .
b111100 "
b0 .
1#
0>
0=
1<
1?
0H
1G
0J
1M
1+
0F
1I
0+
0L
1*
1O
0)
0*
1F
0E
1D
1*
0O
1)
1R
0(
0D
1C
0R
1(
1U
0'
0C
1B
0U
1'
1X
0&
0B
1A
0X
1&
1%
0A
0%
#24000
b1 .
0#
0?
0I
1+
0F
0*
#24200
b10 .
b11 .
b111101 "
b0 .
1#
1>
1?
1H
0G
1I
0+
1F
0I
1+
1*
#24400
b1 .
0#
0?
0+
#24600
b10 .
b11 .
b111110 "
b0 .
1#
0>
1=
1?
0H
1G
1J
1+
0F
1I
0+
1L
0*
0L
1*
1F
1E
0E
1L
0*
1O
0)
0O
1)
1E
1D
0D
1O
0)
1R
0(
0R
1(
1D
1C
0C
1R
0(
1U
0'
0U
1'
1C
1B
0B
1U
0'
1X
0&
0X
1&
1B
1A
0A
1X
0&
1%
0%
1A
1%
#24800
b1 .
0#
0?
0I
1+
0F
0L
1*
0E
0O
1)
0D
0R
1(
0C
0U
1'
0B
0X
1&
0A
0%
#25000
b10 .
b11 .
b111111 "
b0 .
1#
1>
1?
1H
0G
1I
0+
1F
0I
1+
1L
0*
1E
1O
0)
1D
1R
0(
1C
1U
0'
1B
1X
0&
1A
1%
#25200
b1 .
0#
0?
0+
#25400
b10 .
b11 .
b1000000 "
b0 .
1#
0>
0=
0<
0;
0:
09
18
1?
0H
1G
0J
0M
0P
0S
0V
1Y
1+
0F
1I
0+
0L
1*
0O
1)
0R
1(
0U
1'
0X
1&
1[
0%
0*
1F
0E
0D
0C
0B
0A
1@
1*
0)
0(
0'
0&
0[
1%
1$
0@
0$
#25600
b1 .
0#
0?
0I
1+
0F
0*
#25800
b10 .
b11 .
b1000001 "
b0 .
1#
1>
1?
1H
0G
1I
0+
1F
0I
1+
1*
#26000
b1 .
0#
0?
0+
#26200
b10 .
b11 .
b1000010 "
b0 .
1#
0>
1=
1?
0H
1G
1J
1+
0F
1I
0+
1L
0*
0L
1*
1F
1E
0E
1L
0*
1)
0)
1E
1)
#26400
b1 .
0#
0?
0I
1+
0F
0L
1*
0E
0)
#26600
b10 .
b11 .
b1000011 "
b0 .
1#
1>
1?
1H
0G
1I
0+
1F
0I
1+
1L
0*
1E
1)
#26800
b1 .
0#
0?
0+
#27000
b10 .
b11 .
b1000100 "
b0 .
1#
0>
0=
1<
1?
0H
1G
0J
1M
1+
0F
1I
0+
0L
1*
1O
0)
0*
1F
0E
1D
1*
0O
1)
1(
0D
0(
#27200
b1 .
0#
0?
0I
1+
0F
0*
#27400
b10 .
b11 .
b1000101 "
b0 .
1#
1>
1?
1H
0G
1I
0+
1F
0I
1+
1*
#27600
b1 .
0#
0?
0+
#27800
b10 .
b11 .
b1000110 "
b0 .
1#
0>
1=
1?
0H
1G
1J
1+
0F
1I
0+
1L
0*
0L
1*
1F
1E
0E
1L
0*
1O
0)
0O
1)
1E
1D
0D
1O
0)
1(
0(
1D
1(
#28000
b1 .
0#
0?
0I
1+
0F
0L
1*
0E
0O
1)
0D
0(
#28200
b10 .
b11 .
b1000111 "
b0 .
1#
1>
1?
1H
0G
1I
0+
1F
0I
1+
1L
0*
1E
1O
0)
1D
1(
#28400
b1 .
0#
0?
0+
#28600
b10 .
b11 .
b1001000 "
b0 .
1#
0>
0=
0<
1;
1?
0H
1G
0J
0M
1P
1+
0F
1I
0+
0L
1*
0O
1)
1R
0(
0*
1F
0E
0D
1C
1*
0)
0R
1(
1'
0C
0'
#28800
b1 .
0#
0?
0I
1+
0F
0*
#29000
b10 .
b11 .
b1001001 "
b0 .
1#
1>
1?
1H
0G
1I
0+
1F
0I
1+
1*
#29200
b1 .
0#
0?
0+
#29400
b10 .
b11 .
b1001010 "
b0 .
1#
0>
1=
1?
0H
1G
1J
1+
0F
1I
0+
1L
0*
0L
1*
1F
1E
0E
1L
0*
1)
0)
1E
1)
#29600
b1 .
0#
0?
0I
1+
0F
0L
1*
0E
0)
#29800
b10 .
b11 .
b1001011 "
b0 .
1#
1>
1?
1H
0G
1I
0+
1F
0I
1+
1L
0*
1E
1)
#30000
b1 .
0#
0?
0+
#30200
b10 .
b11 .
b1001100 "
b0 .
1#
0>
0=
1<
1?
0H
1G
0J
1M
1+
0F
1I
0+
0L
1*
1O
0)
0*
1F
0E
1D
1*
0O
1)
1R
0(
0D
1C
0R
1(
1'
0C
0'
#30400
b1 .
0#
0?
0I
1+
0F
0*
#30600
b10 .
b11 .
b1001101 "
b0 .
1#
1>
1?
1H
0G
1I
0+
1F
0I
1+
1*
#30800
b1 .
0#
0?
0+
#31000
b10 .
b11 .
b1001110 "
b0 .
1#
0>
1=
1?
0H
1G
1J
1+
0F
1I
0+
1L
0*
0L
1*
1F
1E
0E
1L
0*
1O
0)
0O
1)
1E
1D
0D
1O
0)
1R
0(
0R
1(
1D
1C
0C
1R
0(
1'
0'
1C
1'
#31200
b1 .
0#
0?
0I
1+
0F
0L
1*
0E
0O
1)
0D
0R
1(
0C
0'
#31400
b10 .
b11 .
b1001111 "
b0 .
1#
1>
1?
1H
0G
1I
0+
1F
0I
1+
1L
0*
1E
1O
0)
1D
1R
0(
1C
1'
#31600
b1 .
0#
0?
0+
#31800
b10 .
b11 .
b1010000 "
b0 .
1#
0>
0=
0<
0;
1:
1?
0H
1G
0J
0M
0P
1S
1+
0F
1I
0+
0L
1*
0O
1)
0R
1(
1U
0'
0*
1F
0E
0D
0C
1B
1*
0)
0(
0U
1'
1&
0B
0&
#32000
b1 .
0#
0?
0I
1+
0F
0*
#32200
b10 .
b11 .
b1010001 "
b0 .
1#
1>
1?
1H
0G
1I
0+
1F
0I
1+
1*
#32400
b1 .
0#
0?
0+
#32600
b10 .
b11 .
b1010010 "
b0 .
1#
0>
1=
1?
0H
1G
1J
1+
0F
1I
0+
1L
0*
0L
1*
1F
1E
0E
1L
0*
1)
0)
1E
1)
#32800
b1 .
0#
0?
0I
1+
0F
0L
1*
0E
0)
#33000
b10 .
b11 .
b1010011 "
b0 .
1#
1>
1?
1H
0G
1I
0+
1F
0I
1+
1L
0*
1E
1)
#33200
b1 .
0#
0?
0+
#33400
b10 .
b11 .
b1010100 "
b0 .
1#
0>
0=
1<
1?
0H
1G
0J
1M
1+
0F
1I
0+
0L
1*
1O
0)
0*
1F
0E
1D
1*
0O
1)
1(
0D
0(
#33600
b1 .
0#
0?
0I
1+
0F
0*
#33800
b10 .
b11 .
b1010101 "
b0 .
1#
1>
1?
1H
0G
1I
0+
1F
0I
1+
1*
#34000
b1 .
0#
0?
0+
#34200
b10 .
b11 .
b1010110 "
b0 .
1#
0>
1=
1?
0H
1G
1J
1+
0F
1I
0+
1L
0*
0L
1*
1F
1E
0E
1L
0*
1O
0)
0O
1)
1E
1D
0D
1O
0)
1(
0(
1D
1(
#34400
b1 .
0#
0?
0I
1+
0F
0L
1*
0E
0O
1)
0D
0(
#34600
b10 .
b11 .
b1010111 "
b0 .
1#
1>
1?
1H
0G
1I
0+
1F
0I
1+
1L
0*
1E
1O
0)
1D
1(
#34800
b1 .
0#
0?
0+
#35000
b10 .
b11 .
b1011000 "
b0 .
1#
0>
0=
0<
1;
1?
0H
1G
0J
0M
1P
1+
0F
1I
0+
0L
1*
0O
1)
1R
0(
0*
1F
0E
0D
1C
1*
0)
0R
1(
1U
0'
0C
1B
0U
1'
1&
0B
0&
#35200
b1 .
0#
0?
0I
1+
0F
0*
#35400
b10 .
b11 .
b1011001 "
b0 .
1#
1>
1?
1H
0G
1I
0+
1F
0I
1+
1*
#35600
b1 .
0#
0?
0+
#35800
b10 .
b11 .
b1011010 "
b0 .
1#
0>
1=
1?
0H
1G
1J
1+
0F
1I
0+
1L
0*
0L
1*
1F
1E
0E
1L
0*
1)
0)
1E
1)
#36000
b1 .
0#
0?
0I
1+
0F
0L
1*
0E
0)
#36200
b10 .
b11 .
b1011011 "
b0 .
1#
1>
1?
1H
0G
1I
0+
1F
0I
1+
1L
0*
1E
1)
#36400
b1 .
0#
0?
0+
#36600
b10 .
b11 .
b1011100 "
b0 .
1#
0>
0=
1<
1?
0H
1G
0J
1M
1+
0F
1I
0+
0L
1*
1O
0)
0*
1F
0E
1D
1*
0O
1)
1R
0(
0D
1C
0R
1(
1U
0'
0C
1B
0U
1'
1&
0B
0&
#36800
b1 .
0#
0?
0I
1+
0F
0*
#37000
b10 .
b11 .
b1011101 "
b0 .
1#
1>
1?
1H
0G
1I
0+
1F
0I
1+
1*
#37200
b1 .
0#
0?
0+
#37400
b10 .
b11 .
b1011110 "
b0 .
1#
0>
1=
1?
0H
1G
1J
1+
0F
1I
0+
1L
0*
0L
1*
1F
1E
0E
1L
0*
1O
0)
0O
1)
1E
1D
0D
1O
0)
1R
0(
0R
1(
1D
1C
0C
1R
0(
1U
0'
0U
1'
1C
1B
0B
1U
0'
1&
0&
1B
1&
#37600
b1 .
0#
0?
0I
1+
0F
0L
1*
0E
0O
1)
0D
0R
1(
0C
0U
1'
0B
0&
#37800
b10 .
b11 .
b1011111 "
b0 .
1#
1>
1?
1H
0G
1I
0+
1F
0I
1+
1L
0*
1E
1O
0)
1D
1R
0(
1C
1U
0'
1B
1&
#38000
b1 .
0#
0?
0+
#38200
b10 .
b11 .
b1100000 "
b0 .
1#
0>
0=
0<
0;
0:
19
1?
0H
1G
0J
0M
0P
0S
1V
1+
0F
1I
0+
0L
1*
0O
1)
0R
1(
0U
1'
1X
0&
0*
1F
0E
0D
0C
0B
1A
1*
0)
0(
0'
0X
1&
1[
0%
0A
1@
0[
1%
1$
0@
0$
#38400
b1 .
0#
0?
0I
1+
0F
0*
#38600
b10 .
b11 .
b1100001 "
b0 .
1#
1>
1?
1H
0G
1I
0+
1F
0I
1+
1*
#38800
b1 .
0#
0?
0+
#39000
b10 .
b11 .
b1100010 "
b0 .
1#
0>
1=
1?
0H
1G
1J
1+
0F
1I
0+
1L
0*
0L
1*
1F
1E
0E
1L
0*
1)
0)
1E
1)
#39200
b1 .
0#
0?
0I
1+
0F
0L
1*
0E
0)
#39400
b10 .
b11 .
b1100011 "
b0 .
1#
1>
1?
1H
0G
1I
0+
1F
0I
1+
1L
0*
1E
1)
#39600
b1 .
0#
0?
0+
#39800
b10 .
b11 .
b1100100 "
b0 .
1#
0>
0=
1<
1?
0H
1G
0J
1M
1+
0F
1I
0+
0L
1*
1O
0)
0*
1F
0E
1D
1*
0O
1)
1(
0D
0(
#40000
b1 .
0#
0?
0I
1+
0F
0*
#40200
b10 .
b11 .
b1100101 "
b0 .
1#
1>
1?
1H
0G
1I
0+
1F
0I
1+
1*
#40400
b1 .
0#
0?
0+
#40600
b10 .
b11 .
b1100110 "
b0 .
1#
0>
1=
1?
0H
1G
1J
1+
0F
1I
0+
1L
0*
0L
1*
1F
1E
0E
1L
0*
1O
0)
0O
1)
1E
1D
0D
1O
0)
1(
0(
1D
1(
#40800
b1 .
0#
0?
0I
1+
0F
0L
1*
0E
0O
1)
0D
0(
#41000
b10 .
b11 .
b1100111 "
b0 .
1#
1>
1?
1H
0G
1I
0+
1F
0I
1+
1L
0*
1E
1O
0)
1D
1(
#41200
b1 .
0#
0?
0+
#41400
b10 .
b11 .
b1101000 "
b0 .
1#
0>
0=
0<
1;
1?
0H
1G
0J
0M
1P
1+
0F
1I
0+
0L
1*
0O
1)
1R
0(
0*
1F
0E
0D
1C
1*
0)
0R
1(
1'
0C
0'
#41600
b1 .
0#
0?
0I
1+
0F
0*
#41800
b10 .
b11 .
b1101001 "
b0 .
1#
1>
1?
1H
0G
1I
0+
1F
0I
1+
1*
