Verilog/Basic examples/Exp2/wave_decoBCD.vcd
$date
	Thu Mar 11 12:16:24 2021
$end
$version
	ModelSim Version 10.5b
$end
$timescale
	10ns
$end

$scope module DecoTB $end
$var reg 4 ! A [3:0] $end
$var wire 1 " B [6] $end
$var wire 1 # B [5] $end
$var wire 1 $ B [4] $end
$var wire 1 % B [3] $end
$var wire 1 & B [2] $end
$var wire 1 ' B [1] $end
$var wire 1 ( B [0] $end

$scope module uut $end
$var wire 1 ) in [3] $end
$var wire 1 * in [2] $end
$var wire 1 + in [1] $end
$var wire 1 , in [0] $end
$var wire 1 " Out [6] $end
$var wire 1 # Out [5] $end
$var wire 1 $ Out [4] $end
$var wire 1 % Out [3] $end
$var wire 1 & Out [2] $end
$var wire 1 ' Out [1] $end
$var wire 1 ( Out [0] $end
$upscope $end
$upscope $end
$enddefinitions $end
#0
$dumpvars
b0 !
0(
1'
1&
1%
1$
1#
1"
0,
0+
0*
0)
$end
#1000
b1 !
1,
0"
0%
0&
0'
#2000
b10 !
0,
1+
0$
1(
1"
1%
1&
#3000
b11 !
1,
1$
0&
#4000
b100 !
0,
0+
1*
0"
0%
1'
#5000
b101 !
1,
1"
0#
1%
#6000
b110 !
0,
1+
1&
#7000
b111 !
1,
1#
0%
0&
0'
0(
#8000
b1000 !
0,
0+
0*
1)
1%
1&
1'
1(
#9000
b1001 !
1,
0&
#10000
b1010 !
0,
1+
0%
1&
#11000
b1011 !
1,
0"
0#
1%
#12000
b1100 !
0,
0+
1*
0$
0(
1"
#13000
b1101 !
1,
0"
1#
1$
0'
1(
#14000
b1110 !
0,
1+
1"
0#
0$
1'
#15000
b1111 !
1,
0%
#16000
b0 !
0,
0+
0*
0)
1#
1$
0(
1%
